…
join

group_by

summarize

Read tabular data into a DataFrame (tibble)

library(tidyverse)

data <- read_tsv("data/example_dataset_1.tsv")

print(data, n = 5)

# A tibble: 16 x 7
  strain  mean_yfp mean_rfp mean_ratio se_ratio insert_sequence kozak_region
  <chr>      <int>    <int>      <dbl>    <dbl> <chr>           <chr>       
1 schp688     1748    20754      0.755    0.066 10×AGA          A           
2 schp684     3294    20585      1.44     0.021 10×AGA          B           
3 schp690     3535    20593      1.54     0.018 10×AGA          C           
4 schp687     4658    20860      2.00     0.021 10×AGA          D           
5 schp686     5000    21171      2.12     0.023 10×AGA          E           
# … with 11 more rows

Use the pipe %>% operator to chain commands

data %>%
  print(n = 5)

# A tibble: 16 x 7
  strain  mean_yfp mean_rfp mean_ratio se_ratio insert_sequence kozak_region
  <chr>      <int>    <int>      <dbl>    <dbl> <chr>           <chr>       
1 schp688     1748    20754      0.755    0.066 10×AGA          A           
2 schp684     3294    20585      1.44     0.021 10×AGA          B           
3 schp690     3535    20593      1.54     0.018 10×AGA          C           
4 schp687     4658    20860      2.00     0.021 10×AGA          D           
5 schp686     5000    21171      2.12     0.023 10×AGA          E           
# … with 11 more rows
…
print(data, n= 5)

data %>%
    print(., n = 5)

data %>%
    print(n = 5)

Simple Data Manipulations – select columns

data %>%
  print(n = 2)

# A tibble: 16 x 7
  strain  mean_yfp mean_rfp mean_ratio se_ratio insert_sequence kozak_region
  <chr>      <int>    <int>      <dbl>    <dbl> <chr>           <chr>       
1 schp688     1748    20754      0.755    0.066 10×AGA          A           
2 schp684     3294    20585      1.44     0.021 10×AGA          B           
# … with 14 more rows

data %>%
  select(strain, mean_ratio, insert_sequence, kozak_region) %>%
  print(n = 2)

# A tibble: 16 x 4
  strain  mean_ratio insert_sequence kozak_region
  <chr>        <dbl> <chr>           <chr>       
1 schp688      0.755 10×AGA          A           
2 schp684      1.44  10×AGA          B           
# … with 14 more rows
…
Other examples of summary functions:

min()
mean()
sd()
first()
n()

Use group_by to group subsets of rows

data <- read_tsv("data/example_dataset_4.tsv") %>% 
  print(n = 10)

# A tibble: 74 x 4
   strain    yfp   rfp replicate
   <chr>   <int> <int>     <int>
 1 schp690  3640 20944         1
 2 schp690  3502 20881         2
 3 schp690  3569 20063         3
 4 schp690  3475 20773         4
 5 schp690  3487 20307         5
 6 schp689  9790 24399         1
 7 schp689  9821 24932         2
 8 schp689  9310 23007         3
 9 schp689  6269 19075         4
10 schp689  8273 21835         5
# ... with 64 more rows

Use group_by to group subsets of rows

data %>% 
  group_by(strain) %>%
  print(n = 10)

# A tibble: 74 x 4
# Groups:   strain [16]
   strain    yfp   rfp replicate
   <chr>   <int> <int>     <int>
 1 schp690  3640 20944         1
 2 schp690  3502 20881         2
 3 schp690  3569 20063         3
 4 schp690  3475 20773         4
 5 schp690  3487 20307         5
 6 schp689  9790 24399         1
 7 schp689  9821 24932         2
 8 schp689  9310 23007         3
 9 schp689  6269 19075         4
10 schp689  8273 21835         5
# … with 64 more rows
…
