…
library(tidyverse)

data <- read_tsv("data/example_dataset_1.tsv")

Introduce concept of libraries, assignment, functions.

Read tabular data into a DataFrame (tibble)

library(tidyverse)

data <- read_tsv("data/example_dataset_1.tsv")

print(data, n = 5)

# A tibble: 16 x 7
  strain  mean_yfp mean_rfp mean_ratio se_ratio insert_sequence kozak_region
  <chr>      <int>    <int>      <dbl>    <dbl> <chr>           <chr>       
1 schp688     1748    20754      0.755    0.066 10×AGA          A           
2 schp684     3294    20585      1.44     0.021 10×AGA          B           
3 schp690     3535    20593      1.54     0.018 10×AGA          C           
4 schp687     4658    20860      2.00     0.021 10×AGA          D           
5 schp686     5000    21171      2.12     0.023 10×AGA          E           
# ... with 11 more rows
…
